%YAML 1.1
%TAG !u! tag:unity3d.com,2011:
--- !u!1 &5527350129223946621
GameObject:
  m_ObjectHideFlags: 0
  m_CorrespondingSourceObject: {fileID: 0}
  m_PrefabInstance: {fileID: 0}
  m_PrefabAsset: {fileID: 0}
  serializedVersion: 6
  m_Component:
  - component: {fileID: 419478687747340862}
  m_Layer: 0
  m_Name: FloorStrip
  m_TagString: Untagged
  m_Icon: {fileID: 0}
  m_NavMeshLayer: 0
  m_StaticEditorFlags: 0
  m_IsActive: 1
--- !u!4 &419478687747340862
Transform:
  m_ObjectHideFlags: 0
  m_CorrespondingSourceObject: {fileID: 0}
  m_PrefabInstance: {fileID: 0}
  m_PrefabAsset: {fileID: 0}
  m_GameObject: {fileID: 5527350129223946621}
  m_LocalRotation: {x: 0, y: 0, z: 0, w: 1}
  m_LocalPosition: {x: 0, y: 0, z: 0}
  m_LocalScale: {x: 1, y: 1, z: 1}
  m_Children:
  - {fileID: 3327188715197546213}
  - {fileID: 3327188716547520746}
  m_Father: {fileID: 0}
  m_RootOrder: 0
  m_LocalEulerAnglesHint: {x: 0, y: 0, z: 0}
--- !u!1001 &3324256396984808230
PrefabInstance:
  m_ObjectHideFlags: 0
  serializedVersion: 2
  m_Modification:
    m_TransformParent: {fileID: 419478687747340862}
    m_Modifications:
    - target: {fileID: 1795685562435138, guid: e274c7bd48f126345961fb198e1c16db, type: 3}
      propertyPath: m_Name
      value: FloorInteriorA4 (1)
      objectReference: {fileID: 0}
    - target: {fileID: 4130963870829516, guid: e274c7bd48f126345961fb198e1c16db, type: 3}
      propertyPath: m_RootOrder
      value: 1
      objectReference: {fileID: 0}
    - target: {fileID: 4130963870829516, guid: e274c7bd48f126345961fb198e1c16db, type: 3}
      propertyPath: m_LocalPosition.x
      value: -9.999992
      objectReference: {fileID: 0}
    - target: {fileID: 4130963870829516, guid: e274c7bd48f126345961fb198e1c16db, type: 3}
      propertyPath: m_LocalPosition.y
      value: 0
      objectReference: {fileID: 0}
    - target: {fileID: 4130963870829516, guid: e274c7bd48f126345961fb198e1c16db, type: 3}
      propertyPath: m_LocalPosition.z
      value: -5.0000005
      objectReference: {fileID: 0}
    - target: {fileID: 4130963870829516, guid: e274c7bd48f126345961fb198e1c16db, type: 3}
      propertyPath: m_LocalRotation.w
      value: 0.7071068
      objectReference: {fileID: 0}
    - target: {fileID: 4130963870829516, guid: e274c7bd48f126345961fb198e1c16db, type: 3}
      propertyPath: m_LocalRotation.x
      value: -0
      objectReference: {fileID: 0}
    - target: {fileID: 4130963870829516, guid: e274c7bd48f126345961fb198e1c16db, type: 3}
      propertyPath: m_LocalRotation.y
      value: -0.7071068
      objectReference: {fileID: 0}
    - target: {fileID: 4130963870829516, guid: e274c7bd48f126345961fb198e1c16db, type: 3}
      propertyPath: m_LocalRotation.z
      value: -0
      objectReference: {fileID: 0}
    - target: {fileID: 4130963870829516, guid: e274c7bd48f126345961fb198e1c16db, type: 3}
      propertyPath: m_LocalEulerAnglesHint.x
      value: 0
      objectReference: {fileID: 0}
    - target: {fileID: 4130963870829516, guid: e274c7bd48f126345961fb198e1c16db, type: 3}
      propertyPath: m_LocalEulerAnglesHint.y
      value: -90
      objectReference: {fileID: 0}
    - target: {fileID: 4130963870829516, guid: e274c7bd48f126345961fb198e1c16db, type: 3}
      propertyPath: m_LocalEulerAnglesHint.z
      value: 0
      objectReference: {fileID: 0}
    - target: {fileID: 23426681366373330, guid: e274c7bd48f126345961fb198e1c16db, type: 3}
      propertyPath: m_Materials.Array.data[2]
      value: 
      objectReference: {fileID: 2100000, guid: bf63361f8a0b82f44b19dd7e692f3722, type: 2}
    - target: {fileID: 23426681366373330, guid: e274c7bd48f126345961fb198e1c16db, type: 3}
      propertyPath: m_Materials.Array.data[3]
      value: 
      objectReference: {fileID: 2100000, guid: 598774e92bf9668438ab44713867345e, type: 2}
    - target: {fileID: 64769380439121818, guid: e274c7bd48f126345961fb198e1c16db, type: 3}
      propertyPath: m_Enabled
      value: 0
      objectReference: {fileID: 0}
    m_RemovedComponents: []
  m_SourcePrefab: {fileID: 100100000, guid: e274c7bd48f126345961fb198e1c16db, type: 3}
--- !u!4 &3327188716547520746 stripped
Transform:
  m_CorrespondingSourceObject: {fileID: 4130963870829516, guid: e274c7bd48f126345961fb198e1c16db, type: 3}
  m_PrefabInstance: {fileID: 3324256396984808230}
  m_PrefabAsset: {fileID: 0}
--- !u!1001 &3324256398318007593
PrefabInstance:
  m_ObjectHideFlags: 0
  serializedVersion: 2
  m_Modification:
    m_TransformParent: {fileID: 419478687747340862}
    m_Modifications:
    - target: {fileID: 1795685562435138, guid: e274c7bd48f126345961fb198e1c16db, type: 3}
      propertyPath: m_Name
      value: FloorInteriorA4
      objectReference: {fileID: 0}
    - target: {fileID: 4130963870829516, guid: e274c7bd48f126345961fb198e1c16db, type: 3}
      propertyPath: m_RootOrder
      value: 0
      objectReference: {fileID: 0}
    - target: {fileID: 4130963870829516, guid: e274c7bd48f126345961fb198e1c16db, type: 3}
      propertyPath: m_LocalPosition.x
      value: 0
      objectReference: {fileID: 0}
    - target: {fileID: 4130963870829516, guid: e274c7bd48f126345961fb198e1c16db, type: 3}
      propertyPath: m_LocalPosition.y
      value: 0
      objectReference: {fileID: 0}
    - target: {fileID: 4130963870829516, guid: e274c7bd48f126345961fb198e1c16db, type: 3}
      propertyPath: m_LocalPosition.z
      value: 0
      objectReference: {fileID: 0}
    - target: {fileID: 4130963870829516, guid: e274c7bd48f126345961fb198e1c16db, type: 3}
      propertyPath: m_LocalRotation.w
      value: 0.7071068
      objectReference: {fileID: 0}
    - target: {fileID: 4130963870829516, guid: e274c7bd48f126345961fb198e1c16db, type: 3}
      propertyPath: m_LocalRotation.x
      value: -0
      objectReference: {fileID: 0}
    - target: {fileID: 4130963870829516, guid: e274c7bd48f126345961fb198e1c16db, type: 3}
      propertyPath: m_LocalRotation.y
      value: 0.7071068
      objectReference: {fileID: 0}
    - target: {fileID: 4130963870829516, guid: e274c7bd48f126345961fb198e1c16db, type: 3}
      propertyPath: m_LocalRotation.z
      value: -0
      objectReference: {fileID: 0}
    - target: {fileID: 4130963870829516, guid: e274c7bd48f126345961fb198e1c16db, type: 3}
      propertyPath: m_LocalEulerAnglesHint.x
      value: 0
      objectReference: {fileID: 0}
    - target: {fileID: 4130963870829516, guid: e274c7bd48f126345961fb198e1c16db, type: 3}
      propertyPath: m_LocalEulerAnglesHint.y
      value: 90
      objectReference: {fileID: 0}
    - target: {fileID: 4130963870829516, guid: e274c7bd48f126345961fb198e1c16db, type: 3}
      propertyPath: m_LocalEulerAnglesHint.z
      value: 0
      objectReference: {fileID: 0}
    - target: {fileID: 23426681366373330, guid: e274c7bd48f126345961fb198e1c16db, type: 3}
      propertyPath: m_Materials.Array.data[1]
      value: 
      objectReference: {fileID: 2100000, guid: a28bc46fe61ec46459b3c7963146ff11, type: 2}
    - target: {fileID: 23426681366373330, guid: e274c7bd48f126345961fb198e1c16db, type: 3}
      propertyPath: m_Materials.Array.data[2]
      value: 
      objectReference: {fileID: 2100000, guid: bf63361f8a0b82f44b19dd7e692f3722, type: 2}
    - target: {fileID: 23426681366373330, guid: e274c7bd48f126345961fb198e1c16db, type: 3}
      propertyPath: m_Materials.Array.data[3]
      value: 
      objectReference: {fileID: 2100000, guid: 598774e92bf9668438ab44713867345e, type: 2}
    - target: {fileID: 64769380439121818, guid: e274c7bd48f126345961fb198e1c16db, type: 3}
      propertyPath: m_Enabled
      value: 0
      objectReference: {fileID: 0}
    m_RemovedComponents: []
  m_SourcePrefab: {fileID: 100100000, guid: e274c7bd48f126345961fb198e1c16db, type: 3}
--- !u!4 &3327188715197546213 stripped
Transform:
  m_CorrespondingSourceObject: {fileID: 4130963870829516, guid: e274c7bd48f126345961fb198e1c16db, type: 3}
  m_PrefabInstance: {fileID: 3324256398318007593}
  m_PrefabAsset: {fileID: 0}
