%YAML 1.1
%TAG !u! tag:unity3d.com,2011:
--- !u!1 &4742169366867031328
GameObject:
  m_ObjectHideFlags: 0
  m_CorrespondingSourceObject: {fileID: 0}
  m_PrefabInstance: {fileID: 0}
  m_PrefabAsset: {fileID: 0}
  serializedVersion: 6
  m_Component:
  - component: {fileID: 5461882668180867962}
  m_Layer: 0
  m_Name: FloorEdgeBlock
  m_TagString: Untagged
  m_Icon: {fileID: 0}
  m_NavMeshLayer: 0
  m_StaticEditorFlags: 0
  m_IsActive: 1
--- !u!4 &5461882668180867962
Transform:
  m_ObjectHideFlags: 0
  m_CorrespondingSourceObject: {fileID: 0}
  m_PrefabInstance: {fileID: 0}
  m_PrefabAsset: {fileID: 0}
  m_GameObject: {fileID: 4742169366867031328}
  m_LocalRotation: {x: 0, y: 0, z: 0, w: 1}
  m_LocalPosition: {x: 0, y: 0, z: 0}
  m_LocalScale: {x: 1, y: 1, z: 1}
  m_Children:
  - {fileID: 5050516889268881156}
  - {fileID: 4565633715825651593}
  m_Father: {fileID: 0}
  m_RootOrder: 0
  m_LocalEulerAnglesHint: {x: 0, y: 0, z: 0}
--- !u!1001 &185884682348378888
PrefabInstance:
  m_ObjectHideFlags: 0
  serializedVersion: 2
  m_Modification:
    m_TransformParent: {fileID: 5461882668180867962}
    m_Modifications:
    - target: {fileID: 3986167541834776349, guid: 2d804b533a640144aa4325174aff9481, type: 3}
      propertyPath: m_Name
      value: FloorCircle (4)
      objectReference: {fileID: 0}
    - target: {fileID: 4936912178259442700, guid: 2d804b533a640144aa4325174aff9481, type: 3}
      propertyPath: m_RootOrder
      value: 0
      objectReference: {fileID: 0}
    - target: {fileID: 4936912178259442700, guid: 2d804b533a640144aa4325174aff9481, type: 3}
      propertyPath: m_LocalPosition.x
      value: 0
      objectReference: {fileID: 0}
    - target: {fileID: 4936912178259442700, guid: 2d804b533a640144aa4325174aff9481, type: 3}
      propertyPath: m_LocalPosition.y
      value: 0
      objectReference: {fileID: 0}
    - target: {fileID: 4936912178259442700, guid: 2d804b533a640144aa4325174aff9481, type: 3}
      propertyPath: m_LocalPosition.z
      value: 0
      objectReference: {fileID: 0}
    - target: {fileID: 4936912178259442700, guid: 2d804b533a640144aa4325174aff9481, type: 3}
      propertyPath: m_LocalRotation.w
      value: 1
      objectReference: {fileID: 0}
    - target: {fileID: 4936912178259442700, guid: 2d804b533a640144aa4325174aff9481, type: 3}
      propertyPath: m_LocalRotation.x
      value: -0
      objectReference: {fileID: 0}
    - target: {fileID: 4936912178259442700, guid: 2d804b533a640144aa4325174aff9481, type: 3}
      propertyPath: m_LocalRotation.y
      value: -0
      objectReference: {fileID: 0}
    - target: {fileID: 4936912178259442700, guid: 2d804b533a640144aa4325174aff9481, type: 3}
      propertyPath: m_LocalRotation.z
      value: -0
      objectReference: {fileID: 0}
    - target: {fileID: 4936912178259442700, guid: 2d804b533a640144aa4325174aff9481, type: 3}
      propertyPath: m_LocalEulerAnglesHint.x
      value: 0
      objectReference: {fileID: 0}
    - target: {fileID: 4936912178259442700, guid: 2d804b533a640144aa4325174aff9481, type: 3}
      propertyPath: m_LocalEulerAnglesHint.y
      value: 0
      objectReference: {fileID: 0}
    - target: {fileID: 4936912178259442700, guid: 2d804b533a640144aa4325174aff9481, type: 3}
      propertyPath: m_LocalEulerAnglesHint.z
      value: 0
      objectReference: {fileID: 0}
    m_RemovedComponents: []
  m_SourcePrefab: {fileID: 100100000, guid: 2d804b533a640144aa4325174aff9481, type: 3}
--- !u!4 &5050516889268881156 stripped
Transform:
  m_CorrespondingSourceObject: {fileID: 4936912178259442700, guid: 2d804b533a640144aa4325174aff9481, type: 3}
  m_PrefabInstance: {fileID: 185884682348378888}
  m_PrefabAsset: {fileID: 0}
--- !u!1001 &4219356116356912567
PrefabInstance:
  m_ObjectHideFlags: 0
  serializedVersion: 2
  m_Modification:
    m_TransformParent: {fileID: 5461882668180867962}
    m_Modifications:
    - target: {fileID: 419478687747340862, guid: 4c1bf6173c4dd5e468f7e2d8149bcd27, type: 3}
      propertyPath: m_RootOrder
      value: 1
      objectReference: {fileID: 0}
    - target: {fileID: 419478687747340862, guid: 4c1bf6173c4dd5e468f7e2d8149bcd27, type: 3}
      propertyPath: m_LocalPosition.x
      value: 0
      objectReference: {fileID: 0}
    - target: {fileID: 419478687747340862, guid: 4c1bf6173c4dd5e468f7e2d8149bcd27, type: 3}
      propertyPath: m_LocalPosition.y
      value: 0
      objectReference: {fileID: 0}
    - target: {fileID: 419478687747340862, guid: 4c1bf6173c4dd5e468f7e2d8149bcd27, type: 3}
      propertyPath: m_LocalPosition.z
      value: 0
      objectReference: {fileID: 0}
    - target: {fileID: 419478687747340862, guid: 4c1bf6173c4dd5e468f7e2d8149bcd27, type: 3}
      propertyPath: m_LocalRotation.w
      value: 1
      objectReference: {fileID: 0}
    - target: {fileID: 419478687747340862, guid: 4c1bf6173c4dd5e468f7e2d8149bcd27, type: 3}
      propertyPath: m_LocalRotation.x
      value: 0
      objectReference: {fileID: 0}
    - target: {fileID: 419478687747340862, guid: 4c1bf6173c4dd5e468f7e2d8149bcd27, type: 3}
      propertyPath: m_LocalRotation.y
      value: 0
      objectReference: {fileID: 0}
    - target: {fileID: 419478687747340862, guid: 4c1bf6173c4dd5e468f7e2d8149bcd27, type: 3}
      propertyPath: m_LocalRotation.z
      value: 0
      objectReference: {fileID: 0}
    - target: {fileID: 419478687747340862, guid: 4c1bf6173c4dd5e468f7e2d8149bcd27, type: 3}
      propertyPath: m_LocalEulerAnglesHint.x
      value: 0
      objectReference: {fileID: 0}
    - target: {fileID: 419478687747340862, guid: 4c1bf6173c4dd5e468f7e2d8149bcd27, type: 3}
      propertyPath: m_LocalEulerAnglesHint.y
      value: 0
      objectReference: {fileID: 0}
    - target: {fileID: 419478687747340862, guid: 4c1bf6173c4dd5e468f7e2d8149bcd27, type: 3}
      propertyPath: m_LocalEulerAnglesHint.z
      value: 0
      objectReference: {fileID: 0}
    - target: {fileID: 5527350129223946621, guid: 4c1bf6173c4dd5e468f7e2d8149bcd27, type: 3}
      propertyPath: m_Name
      value: FloorStrip (3)
      objectReference: {fileID: 0}
    m_RemovedComponents: []
  m_SourcePrefab: {fileID: 100100000, guid: 4c1bf6173c4dd5e468f7e2d8149bcd27, type: 3}
--- !u!4 &4565633715825651593 stripped
Transform:
  m_CorrespondingSourceObject: {fileID: 419478687747340862, guid: 4c1bf6173c4dd5e468f7e2d8149bcd27, type: 3}
  m_PrefabInstance: {fileID: 4219356116356912567}
  m_PrefabAsset: {fileID: 0}
