%YAML 1.1
%TAG !u! tag:unity3d.com,2011:
--- !u!319 &31900000
AvatarMask:
  m_ObjectHideFlags: 0
  m_CorrespondingSourceObject: {fileID: 0}
  m_PrefabInstance: {fileID: 0}
  m_PrefabAsset: {fileID: 0}
  m_Name: UpperBody AvatarMask
  m_Mask: 00000000010000000100000000000000000000000100000001000000010000000100000000000000000000000000000000000000
  m_Elements:
  - m_Path: 
    m_Weight: 1
  - m_Path: BH_2_
    m_Weight: 1
  - m_Path: BH_2_/BH_2_lod0
    m_Weight: 1
  - m_Path: BH_2_/BH_2_lod1
    m_Weight: 1
  - m_Path: BH_2_/BH_2_lod2
    m_Weight: 1
  - m_Path: BH_2_/BH_2_lod3
    m_Weight: 1
  - m_Path: BH_2_/BH_2_lod4
    m_Weight: 1
  - m_Path: Root
    m_Weight: 1
  - m_Path: Root/Hips
    m_Weight: 1
  - m_Path: Root/Hips/LeftUpperLeg
    m_Weight: 1
  - m_Path: Root/Hips/LeftUpperLeg/LeftLowerLeg
    m_Weight: 1
  - m_Path: Root/Hips/LeftUpperLeg/LeftLowerLeg/LeftFoot
    m_Weight: 1
  - m_Path: Root/Hips/LeftUpperLeg/LeftLowerLeg/LeftFoot/LeftToes
    m_Weight: 1
  - m_Path: Root/Hips/RightUpperLeg
    m_Weight: 1
  - m_Path: Root/Hips/RightUpperLeg/RightLowerLeg
    m_Weight: 1
  - m_Path: Root/Hips/RightUpperLeg/RightLowerLeg/RightFoot
    m_Weight: 1
  - m_Path: Root/Hips/RightUpperLeg/RightLowerLeg/RightFoot/RightToes
    m_Weight: 1
  - m_Path: Root/Hips/Spine
    m_Weight: 1
  - m_Path: Root/Hips/Spine/Chest
    m_Weight: 1
  - m_Path: Root/Hips/Spine/Chest/UpperChest
    m_Weight: 1
  - m_Path: Root/Hips/Spine/Chest/UpperChest/LeftShoulder
    m_Weight: 1
  - m_Path: Root/Hips/Spine/Chest/UpperChest/LeftShoulder/LeftUpperArm
    m_Weight: 1
  - m_Path: Root/Hips/Spine/Chest/UpperChest/LeftShoulder/LeftUpperArm/LeftLowerArm
    m_Weight: 1
  - m_Path: Root/Hips/Spine/Chest/UpperChest/LeftShoulder/LeftUpperArm/LeftLowerArm/LeftHand
    m_Weight: 1
  - m_Path: Root/Hips/Spine/Chest/UpperChest/LeftShoulder/LeftUpperArm/LeftLowerArm/LeftHand/LeftIndexProximal
    m_Weight: 1
  - m_Path: Root/Hips/Spine/Chest/UpperChest/LeftShoulder/LeftUpperArm/LeftLowerArm/LeftHand/LeftIndexProximal/LeftIndexIntermediate
    m_Weight: 1
  - m_Path: Root/Hips/Spine/Chest/UpperChest/LeftShoulder/LeftUpperArm/LeftLowerArm/LeftHand/LeftIndexProximal/LeftIndexIntermediate/LeftIndexDistal
    m_Weight: 1
  - m_Path: Root/Hips/Spine/Chest/UpperChest/LeftShoulder/LeftUpperArm/LeftLowerArm/LeftHand/LeftLittleProximal
    m_Weight: 1
  - m_Path: Root/Hips/Spine/Chest/UpperChest/LeftShoulder/LeftUpperArm/LeftLowerArm/LeftHand/LeftLittleProximal/LeftLittleIntermediate
    m_Weight: 1
  - m_Path: Root/Hips/Spine/Chest/UpperChest/LeftShoulder/LeftUpperArm/LeftLowerArm/LeftHand/LeftLittleProximal/LeftLittleIntermediate/LeftLittleDistal
    m_Weight: 1
  - m_Path: Root/Hips/Spine/Chest/UpperChest/LeftShoulder/LeftUpperArm/LeftLowerArm/LeftHand/LeftMiddleProximal
    m_Weight: 1
  - m_Path: Root/Hips/Spine/Chest/UpperChest/LeftShoulder/LeftUpperArm/LeftLowerArm/LeftHand/LeftMiddleProximal/LeftMiddleIntermediate
    m_Weight: 1
  - m_Path: Root/Hips/Spine/Chest/UpperChest/LeftShoulder/LeftUpperArm/LeftLowerArm/LeftHand/LeftMiddleProximal/LeftMiddleIntermediate/LeftMiddleDistal
    m_Weight: 1
  - m_Path: Root/Hips/Spine/Chest/UpperChest/LeftShoulder/LeftUpperArm/LeftLowerArm/LeftHand/LeftRingProximal
    m_Weight: 1
  - m_Path: Root/Hips/Spine/Chest/UpperChest/LeftShoulder/LeftUpperArm/LeftLowerArm/LeftHand/LeftRingProximal/LeftRingIntermediate
    m_Weight: 1
  - m_Path: Root/Hips/Spine/Chest/UpperChest/LeftShoulder/LeftUpperArm/LeftLowerArm/LeftHand/LeftRingProximal/LeftRingIntermediate/LeftRingDistal
    m_Weight: 1
  - m_Path: Root/Hips/Spine/Chest/UpperChest/LeftShoulder/LeftUpperArm/LeftLowerArm/LeftHand/LeftThumbProximal
    m_Weight: 1
  - m_Path: Root/Hips/Spine/Chest/UpperChest/LeftShoulder/LeftUpperArm/LeftLowerArm/LeftHand/LeftThumbProximal/LeftThumbIntermediate
    m_Weight: 1
  - m_Path: Root/Hips/Spine/Chest/UpperChest/LeftShoulder/LeftUpperArm/LeftLowerArm/LeftHand/LeftThumbProximal/LeftThumbIntermediate/LeftThumbDistal
    m_Weight: 1
  - m_Path: Root/Hips/Spine/Chest/UpperChest/Neck
    m_Weight: 1
  - m_Path: Root/Hips/Spine/Chest/UpperChest/Neck/Head
    m_Weight: 1
  - m_Path: Root/Hips/Spine/Chest/UpperChest/Neck/Head/Jaw
    m_Weight: 1
  - m_Path: Root/Hips/Spine/Chest/UpperChest/Neck/Head/LeftEye
    m_Weight: 1
  - m_Path: Root/Hips/Spine/Chest/UpperChest/Neck/Head/RightEye
    m_Weight: 1
  - m_Path: Root/Hips/Spine/Chest/UpperChest/RightShoulder
    m_Weight: 1
  - m_Path: Root/Hips/Spine/Chest/UpperChest/RightShoulder/RightUpperArm
    m_Weight: 1
  - m_Path: Root/Hips/Spine/Chest/UpperChest/RightShoulder/RightUpperArm/RightLowerArm
    m_Weight: 1
  - m_Path: Root/Hips/Spine/Chest/UpperChest/RightShoulder/RightUpperArm/RightLowerArm/RightHand
    m_Weight: 1
  - m_Path: Root/Hips/Spine/Chest/UpperChest/RightShoulder/RightUpperArm/RightLowerArm/RightHand/RightIndexProximal
    m_Weight: 1
  - m_Path: Root/Hips/Spine/Chest/UpperChest/RightShoulder/RightUpperArm/RightLowerArm/RightHand/RightIndexProximal/RightIndexIntermediate
    m_Weight: 1
  - m_Path: Root/Hips/Spine/Chest/UpperChest/RightShoulder/RightUpperArm/RightLowerArm/RightHand/RightIndexProximal/RightIndexIntermediate/RightIndexDistal
    m_Weight: 1
  - m_Path: Root/Hips/Spine/Chest/UpperChest/RightShoulder/RightUpperArm/RightLowerArm/RightHand/RightLittleProximal
    m_Weight: 1
  - m_Path: Root/Hips/Spine/Chest/UpperChest/RightShoulder/RightUpperArm/RightLowerArm/RightHand/RightLittleProximal/RightLittleIntermediate
    m_Weight: 1
  - m_Path: Root/Hips/Spine/Chest/UpperChest/RightShoulder/RightUpperArm/RightLowerArm/RightHand/RightLittleProximal/RightLittleIntermediate/RightLittleDistal
    m_Weight: 1
  - m_Path: Root/Hips/Spine/Chest/UpperChest/RightShoulder/RightUpperArm/RightLowerArm/RightHand/RightMiddleProximal
    m_Weight: 1
  - m_Path: Root/Hips/Spine/Chest/UpperChest/RightShoulder/RightUpperArm/RightLowerArm/RightHand/RightMiddleProximal/RightMiddleIntermediate
    m_Weight: 1
  - m_Path: Root/Hips/Spine/Chest/UpperChest/RightShoulder/RightUpperArm/RightLowerArm/RightHand/RightMiddleProximal/RightMiddleIntermediate/RightMiddleDistal
    m_Weight: 1
  - m_Path: Root/Hips/Spine/Chest/UpperChest/RightShoulder/RightUpperArm/RightLowerArm/RightHand/RightRingProximal
    m_Weight: 1
  - m_Path: Root/Hips/Spine/Chest/UpperChest/RightShoulder/RightUpperArm/RightLowerArm/RightHand/RightRingProximal/RightRingIntermediate
    m_Weight: 1
  - m_Path: Root/Hips/Spine/Chest/UpperChest/RightShoulder/RightUpperArm/RightLowerArm/RightHand/RightRingProximal/RightRingIntermediate/RightRingDistal
    m_Weight: 1
  - m_Path: Root/Hips/Spine/Chest/UpperChest/RightShoulder/RightUpperArm/RightLowerArm/RightHand/RightThumbProximal
    m_Weight: 1
  - m_Path: Root/Hips/Spine/Chest/UpperChest/RightShoulder/RightUpperArm/RightLowerArm/RightHand/RightThumbProximal/RightThumbIntermediate
    m_Weight: 1
  - m_Path: Root/Hips/Spine/Chest/UpperChest/RightShoulder/RightUpperArm/RightLowerArm/RightHand/RightThumbProximal/RightThumbIntermediate/RightThumbDistal
    m_Weight: 1
