%YAML 1.1
%TAG !u! tag:unity3d.com,2011:
--- !u!1045 &1
EditorBuildSettings:
  m_ObjectHideFlags: 0
  serializedVersion: 2
  m_Scenes:
  - enabled: 1
    path: Assets/_Project/Scenes/MainMenu.unity
    guid: a922d93aa2b513740bddc060bf976791
  - enabled: 1
    path: Assets/_Project/Scenes/Game.unity
    guid: 1f7bfe122fe2f8c4db87794d2887d5ab
  m_configObjects: {}
